…
```
## ✓ Estimating performance
```

```
## ⓧ Newest results:	roc_auc=0.8982 (+/-0.0079)
```


```r
collect_metrics(svm_bo)
```

```
## # A tibble: 29 × 9
##        cost rbf_sigma .metric .estimator  mean     n std_err .config       .iter
##       <dbl>     <dbl> <chr>   <chr>      <dbl> <int>   <dbl> <chr>         <int>
##  1  0.0156   0.000001 roc_auc binary     0.864    10 0.00864 Preprocessor…     0
##  2  2        0.000001 roc_auc binary     0.863    10 0.00867 Preprocessor…     0
##  3  0.0156   0.0001   roc_auc binary     0.863    10 0.00862 Preprocessor…     0
##  4  2        0.0001   roc_auc binary     0.866    10 0.00855 Preprocessor…     0
##  5  0.00986  0.0365   roc_auc binary     0.876    10 0.00890 Iter1             1
##  6 15.8      0.0446   roc_auc binary     0.868    10 0.00918 Iter2             2
##  7  0.00744  0.0365   roc_auc binary     0.876    10 0.00888 Iter3             3
##  8  0.0384   0.0345   roc_auc binary     0.876    10 0.00897 Iter4             4
##  9  0.00830  0.0263   roc_auc binary     0.875    10 0.00908 Iter5             5
## 10  0.00825  0.0332   roc_auc binary     0.875    10 0.00899 Iter6             6
## # ℹ 19 more rows
```
…
