…
```
## [1] 2107   74
```

Can do __repeated cross-validation__ to reduce sampling error.


```r
vfold_cv(ames_train, v = 10, repeats = 5)
```

```
## #  10-fold cross-validation repeated 5 times 
## # A tibble: 50 × 3
##    splits             id      id2   
##    <list>             <chr>   <chr> 
##  1 <split [2107/235]> Repeat1 Fold01
##  2 <split [2107/235]> Repeat1 Fold02
##  3 <split [2108/234]> Repeat1 Fold03
##  4 <split [2108/234]> Repeat1 Fold04
##  5 <split [2108/234]> Repeat1 Fold05
##  6 <split [2108/234]> Repeat1 Fold06
##  7 <split [2108/234]> Repeat1 Fold07
##  8 <split [2108/234]> Repeat1 Fold08
##  9 <split [2108/234]> Repeat1 Fold09
## 10 <split [2108/234]> Repeat1 Fold10
## # ℹ 40 more rows
```
…
Get the predictions from each fold's assessment set:

```r
assess_res <- collect_predictions(rf_res)
assess_res
```

```
## # A tibble: 2,342 × 5
##    id     .pred  .row Sale_Price .config             
##    <chr>  <dbl> <int>      <dbl> <chr>               
##  1 Fold01  5.10    10       5.09 Preprocessor1_Model1
##  2 Fold01  4.92    27       4.90 Preprocessor1_Model1
##  3 Fold01  5.20    47       5.08 Preprocessor1_Model1
##  4 Fold01  5.13    52       5.10 Preprocessor1_Model1
##  5 Fold01  5.13    59       5.10 Preprocessor1_Model1
##  6 Fold01  5.13    63       5.11 Preprocessor1_Model1
##  7 Fold01  4.87    65       4.91 Preprocessor1_Model1
##  8 Fold01  4.98    66       5.04 Preprocessor1_Model1
##  9 Fold01  4.91    67       4.84 Preprocessor1_Model1
## 10 Fold01  4.92    68       5.01 Preprocessor1_Model1
## # ℹ 2,332 more rows
```
…
