…
# Chapter 4 Ames Housing Data


```r
data(ames)

ames
```

```
## # A tibble: 2,930 × 74
##    MS_Sub…¹ MS_Zo…² Lot_F…³ Lot_A…⁴ Street Alley Lot_S…⁵ Land_…⁶ Utili…⁷ Lot_C…⁸
##  * <fct>    <fct>     <dbl>   <int> <fct>  <fct> <fct>   <fct>   <fct>   <fct>  
##  1 One_Sto… Reside…     141   31770 Pave   No_A… Slight… Lvl     AllPub  Corner 
##  2 One_Sto… Reside…      80   11622 Pave   No_A… Regular Lvl     AllPub  Inside 
##  3 One_Sto… Reside…      81   14267 Pave   No_A… Slight… Lvl     AllPub  Corner 
##  4 One_Sto… Reside…      93   11160 Pave   No_A… Regular Lvl     AllPub  Corner 
##  5 Two_Sto… Reside…      74   13830 Pave   No_A… Slight… Lvl     AllPub  Inside 
##  6 Two_Sto… Reside…      78    9978 Pave   No_A… Slight… Lvl     AllPub  Inside 
##  7 One_Sto… Reside…      41    4920 Pave   No_A… Regular Lvl     AllPub  Inside 
##  8 One_Sto… Reside…      43    5005 Pave   No_A… Slight… HLS     AllPub  Inside 
##  9 One_Sto… Reside…      39    5389 Pave   No_A… Slight… Lvl     AllPub  Inside 
## 10 Two_Sto… Reside…      60    7500 Pave   No_A… Regular Lvl     AllPub  Inside 
## # … with 2,920 more rows, 64 more variables: Land_Slope <fct>,
## #   Neighborhood <fct>, Condition_1 <fct>, Condition_2 <fct>, Bldg_Type <fct>,
## #   House_Style <fct>, Overall_Cond <fct>, Year_Built <int>,
## #   Year_Remod_Add <int>, Roof_Style <fct>, Roof_Matl <fct>,
## #   Exterior_1st <fct>, Exterior_2nd <fct>, Mas_Vnr_Type <fct>,
## #   Mas_Vnr_Area <dbl>, Exter_Cond <fct>, Foundation <fct>, Bsmt_Cond <fct>,
## #   Bsmt_Exposure <fct>, BsmtFin_Type_1 <fct>, BsmtFin_SF_1 <dbl>, …
```
…
