…
```
## ! No improvement for 10 iterations; returning current results.
```

```r
mlp_sfd_tune
```

```
## # Tuning results
## # 10-fold cross-validation 
## # A tibble: 200 × 5
##    splits             id     .metrics          .notes           .iter
##    <list>             <chr>  <list>            <list>           <int>
##  1 <split [1817/202]> Fold01 <tibble [10 × 8]> <tibble [0 × 3]>     0
##  2 <split [1817/202]> Fold02 <tibble [10 × 8]> <tibble [0 × 3]>     0
##  3 <split [1817/202]> Fold03 <tibble [10 × 8]> <tibble [0 × 3]>     0
##  4 <split [1817/202]> Fold04 <tibble [10 × 8]> <tibble [0 × 3]>     0
##  5 <split [1817/202]> Fold05 <tibble [10 × 8]> <tibble [0 × 3]>     0
##  6 <split [1817/202]> Fold06 <tibble [10 × 8]> <tibble [0 × 3]>     0
##  7 <split [1817/202]> Fold07 <tibble [10 × 8]> <tibble [0 × 3]>     0
##  8 <split [1817/202]> Fold08 <tibble [10 × 8]> <tibble [0 × 3]>     0
##  9 <split [1817/202]> Fold09 <tibble [10 × 8]> <tibble [0 × 3]>     0
## 10 <split [1818/201]> Fold10 <tibble [10 × 8]> <tibble [0 × 3]>     0
## # ℹ 190 more rows
```
…
