…
Advise to assess prediction accuracy even if your focus in inference.  Need to know model fidelity to the data.

## 9.2 Regression metrics

practice with predictions on the ames test set:


```r
ames_test_res <- predict(lm_fit, new_data = ames_test %>% select(-Sale_Price))
ames_test_res
```

```
## # A tibble: 588 × 1
##    .pred
##    <dbl>
##  1  5.07
##  2  5.31
##  3  5.28
##  4  5.33
##  5  5.30
##  6  5.24
##  7  5.67
##  8  5.52
##  9  5.34
## 10  5.00
## # ℹ 578 more rows
```
 
 add in the observed values:
 

```r
ames_test_res <- bind_cols(ames_test_res, ames_test %>% select(Sale_Price))
ames_test_res
```

```
## # A tibble: 588 × 2
##    .pred Sale_Price
##    <dbl>      <dbl>
##  1  5.07       5.02
##  2  5.31       5.39
##  3  5.28       5.28
##  4  5.33       5.28
##  5  5.30       5.28
##  6  5.24       5.26
##  7  5.67       5.73
##  8  5.52       5.60
##  9  5.34       5.32
## 10  5.00       4.98
## # ℹ 578 more rows
```
…
NB don't need adj.R2 if working with a test set

## 9.3 Binary Classification Metrics


```r
data(two_class_example)
tibble(two_class_example)
```

```
## # A tibble: 500 × 4
##    truth   Class1   Class2 predicted
##    <fct>    <dbl>    <dbl> <fct>    
##  1 Class2 0.00359 0.996    Class2   
##  2 Class1 0.679   0.321    Class1   
##  3 Class2 0.111   0.889    Class2   
##  4 Class1 0.735   0.265    Class1   
##  5 Class2 0.0162  0.984    Class2   
##  6 Class1 0.999   0.000725 Class1   
##  7 Class1 0.999   0.000799 Class1   
##  8 Class1 0.812   0.188    Class1   
##  9 Class2 0.457   0.543    Class2   
## 10 Class2 0.0976  0.902    Class2   
## # ℹ 490 more rows
```
…
```r
two_class_curve <- roc_curve(two_class_example, truth, Class1)
two_class_curve
```

```
## # A tibble: 502 × 3
##    .threshold specificity sensitivity
##         <dbl>       <dbl>       <dbl>
##  1 -Inf           0                 1
##  2    1.79e-7     0                 1
##  3    4.50e-6     0.00413           1
##  4    5.81e-6     0.00826           1
##  5    5.92e-6     0.0124            1
##  6    1.22e-5     0.0165            1
##  7    1.40e-5     0.0207            1
##  8    1.43e-5     0.0248            1
##  9    2.38e-5     0.0289            1
## 10    3.30e-5     0.0331            1
## # ℹ 492 more rows
```
…
## 9.4 Multiclass classification metrics


```r
data(hpc_cv)
tibble(hpc_cv)
```

```
## # A tibble: 3,467 × 7
##    obs   pred     VF      F       M          L Resample
##    <fct> <fct> <dbl>  <dbl>   <dbl>      <dbl> <chr>   
##  1 VF    VF    0.914 0.0779 0.00848 0.0000199  Fold01  
##  2 VF    VF    0.938 0.0571 0.00482 0.0000101  Fold01  
##  3 VF    VF    0.947 0.0495 0.00316 0.00000500 Fold01  
##  4 VF    VF    0.929 0.0653 0.00579 0.0000156  Fold01  
##  5 VF    VF    0.942 0.0543 0.00381 0.00000729 Fold01  
##  6 VF    VF    0.951 0.0462 0.00272 0.00000384 Fold01  
##  7 VF    VF    0.914 0.0782 0.00767 0.0000354  Fold01  
##  8 VF    VF    0.918 0.0744 0.00726 0.0000157  Fold01  
##  9 VF    VF    0.843 0.128  0.0296  0.000192   Fold01  
## 10 VF    VF    0.920 0.0728 0.00703 0.0000147  Fold01  
## # ℹ 3,457 more rows
```
…
