…
```
## <Training/Testing/Total>
## <40/10/50>
```


```r
chick.train <- training(chick.split) %>% unnest(cols = data)
chick.test <- testing(chick.split) %>% unnest(cols = data)
chick.train
```

```
## # A tibble: 461 × 4
## # Groups:   Chick, Diet [40]
##    Chick Diet  weight  Time
##    <ord> <fct>  <dbl> <dbl>
##  1 1     1         42     0
##  2 1     1         51     2
##  3 1     1         59     4
##  4 1     1         64     6
##  5 1     1         76     8
##  6 1     1         93    10
##  7 1     1        106    12
##  8 1     1        125    14
##  9 1     1        149    16
## 10 1     1        171    18
## # … with 451 more rows
```

```r
chick.test
```

```
## # A tibble: 117 × 4
## # Groups:   Chick, Diet [10]
##    Chick Diet  weight  Time
##    <ord> <fct>  <dbl> <dbl>
##  1 8     1         42     0
##  2 8     1         50     2
##  3 8     1         61     4
##  4 8     1         71     6
##  5 8     1         84     8
##  6 8     1         93    10
##  7 8     1        110    12
##  8 8     1        116    14
##  9 8     1        126    16
## 10 8     1        134    18
## # … with 107 more rows
```
…
Frustrations: inconsistency in conf.int predictions, and can't predice from lme_fit


```r
fits <- fits %>% mutate(pred=map(fit, predict, new_data=chick.test),
                        pred=map(pred, bind_cols, chick.test)) # add observed
```


```r
fits %>% select(-fit) %>% unnest(pred)
```

```
## # A tibble: 468 × 6
##    name          .pred Chick Diet  weight  Time
##    <chr>         <dbl> <ord> <fct>  <dbl> <dbl>
##  1 glmer_fit_int  29.2 8     1         42     0
##  2 glmer_fit_int  42.6 8     1         50     2
##  3 glmer_fit_int  55.0 8     1         61     4
##  4 glmer_fit_int  68.6 8     1         71     6
##  5 glmer_fit_int  82.4 8     1         84     8
##  6 glmer_fit_int  95.1 8     1         93    10
##  7 glmer_fit_int 109.  8     1        110    12
##  8 glmer_fit_int 122.  8     1        116    14
##  9 glmer_fit_int 136.  8     1        126    16
## 10 glmer_fit_int 148.  8     1        134    18
## # … with 458 more rows
```
…
