…
```
##     user   system  elapsed 
## 1517.197   79.224  364.405
```
time was 137 sec on "smaller" data set


```r
wfs1_race$result[[2]]$.metrics[[1]]
```

```
## # A tibble: 50 × 6
##     mtry min_n .metric .estimator .estimate .config              
##    <int> <int> <chr>   <chr>          <dbl> <chr>                
##  1     7    10 rmse    standard      14.1   Preprocessor1_Model01
##  2     7    10 rsq     standard       0.429 Preprocessor1_Model01
##  3     7    19 rmse    standard      14.1   Preprocessor1_Model02
##  4     7    19 rsq     standard       0.432 Preprocessor1_Model02
##  5     9    25 rmse    standard      14.1   Preprocessor1_Model03
##  6     9    25 rsq     standard       0.431 Preprocessor1_Model03
##  7     5    30 rmse    standard      14.1   Preprocessor1_Model04
##  8     5    30 rsq     standard       0.429 Preprocessor1_Model04
##  9     3    22 rmse    standard      14.2   Preprocessor1_Model05
## 10     3    22 rsq     standard       0.421 Preprocessor1_Model05
## # ℹ 40 more rows
```
…
```r
wfs1_race$result[[1]]$.metrics[[2]]
```

```
## # A tibble: 50 × 6
##     penalty mixture .metric .estimator .estimate .config              
##       <dbl>   <dbl> <chr>   <chr>          <dbl> <chr>                
##  1 3.35e-10  0.0692 rmse    standard      16.2   Preprocessor1_Model01
##  2 3.35e-10  0.0692 rsq     standard       0.227 Preprocessor1_Model01
##  3 2.42e- 2  0.104  rmse    standard      16.2   Preprocessor1_Model02
##  4 2.42e- 2  0.104  rsq     standard       0.227 Preprocessor1_Model02
##  5 5.21e- 5  0.131  rmse    standard      16.2   Preprocessor1_Model03
##  6 5.21e- 5  0.131  rsq     standard       0.227 Preprocessor1_Model03
##  7 8.41e- 8  0.193  rmse    standard      16.2   Preprocessor1_Model04
##  8 8.41e- 8  0.193  rsq     standard       0.227 Preprocessor1_Model04
##  9 8.87e- 4  0.229  rmse    standard      16.2   Preprocessor1_Model05
## 10 8.87e- 4  0.229  rsq     standard       0.227 Preprocessor1_Model05
## # ℹ 40 more rows
```
…
```r
all_results <- bind_rows(simple_results, norm_results, feature_results)
```


```r
all_results %>% 
   rank_results(rank_metric = "rsq") %>% 
  # filter(.metric == "rsq") %>% 
   select(wflow_id, model, .config, rsq = mean, rank)
```

```
## # A tibble: 192 × 5
##    wflow_id        model      .config                  rsq  rank
##    <chr>           <chr>      <chr>                  <dbl> <int>
##  1 simple_boosting boost_tree Preprocessor1_Model10 12.5       1
##  2 simple_boosting boost_tree Preprocessor1_Model10  0.519     1
##  3 simple_boosting boost_tree Preprocessor1_Model23 12.5       2
##  4 simple_boosting boost_tree Preprocessor1_Model23  0.518     2
##  5 simple_boosting boost_tree Preprocessor1_Model24 12.6       3
##  6 simple_boosting boost_tree Preprocessor1_Model24  0.514     3
##  7 simple_boosting boost_tree Preprocessor1_Model15 12.7       4
##  8 simple_boosting boost_tree Preprocessor1_Model15  0.512     4
##  9 simple_boosting boost_tree Preprocessor1_Model13 12.7       5
## 10 simple_boosting boost_tree Preprocessor1_Model13  0.508     5
## # ℹ 182 more rows
```
…
